…
Command Line

Via the command line you can manage the addins with greater flexibility.

Retrieve Summary of Installed Addins

dplyr::as_tibble(fetch_addins())

## # A tibble: 47 x 8
##         Package                Name
##           <chr>               <chr>
##  1     blogdown          Serve Site
##  2     blogdown            New Post
##  3     blogdown     Update Metadata
##  4     bookdown        Preview Book
##  5     bookdown    Input LaTeX Math
##  6       chunky              chunky
##  7        clipr  Value to clipboard
##  8        clipr Output to clipboard
##  9 colourpicker  Plot Colour Helper
## 10 colourpicker       Colour Picker
## # ... with 37 more rows, and 6 more variables: Description <chr>,
## #   Binding <chr>, Interactive <chr>, Key <chr>, Shortcut <chr>,
## #   libpath <chr>
…
